[gd_scene load_steps=2 format=2]

[ext_resource path="res://Assets/Interface/voltar.png" type="Texture" id=1]

[node name="Voltar" type="Sprite"]

position = Vector2( 80, 90 )
texture = ExtResource( 1 )

[node name="VoltarButton" type="TextureButton" parent="." index="0"]

anchor_left = 0.0
anchor_top = 0.0
anchor_right = 0.0
anchor_bottom = 0.0
margin_left = -50.0
margin_top = -50.0
margin_right = 50.0
margin_bottom = 50.0
rect_pivot_offset = Vector2( 0, 0 )
rect_clip_content = false
focus_mode = 2
mouse_filter = 0
mouse_default_cursor_shape = 0
size_flags_horizontal = 1
size_flags_vertical = 1
toggle_mode = false
enabled_focus_mode = 2
shortcut = null
group = null


